{
    "namespace": "mx.interware.hdi.fiseg",
    "type": "record",
    "name": "MovimientoPoliza",
    "fields": [
        {
            "name": "lineaNegocio",
            "type": "string"
        },
        {
            "name": "agencia",
            "type": "string"
        },
        {
            "name": "poliza",
            "type": "string"
        },
        {
            "name": "cotizacion",
            "type": "string"
        },
        {
            "name": "claveEndoso",
            "type": "int"
        },
        {
            "name": "estatus",
            "type": "int"
        },
        {
            "name": "fechaProceso",
            "type": "long",
            "logicalType": "timestamp-millis"
        },
        {
            "name": "fechaEmision",
            "type": "long",
            "logicalType": "timestamp-millis"
        },
        {
            "name": "numeroSerie",
            "type": "string"
        }
    ]
}